[
  {
    "id": "0",
    "titre": "The Marshall Mathers LP",
    "artiste": "Eminem",
    "annee": "2000",
    "genre": "Hip-Hop/Rap",
    "piste": "18",
    "image": "https://is2-ssl.mzstatic.com/image/thumb/Music118/v4/a6/5d/28/a65d286d-549b-777c-9bab-092397c8758f/00606949062927.rgb.jpg/268x0w.jpg"
  },
  {
    "id": "1",
    "titre": "The Eminem Show",
    "artiste": "Eminem",
    "annee": "2002",
    "genre": "Hip-Hop/Rap",
    "piste": "20",
    "image": "https://is5-ssl.mzstatic.com/image/thumb/Music118/v4/0a/07/bd/0a07bdd9-739b-a3a3-87f4-d14b5b28f9fb/00606949329020.rgb.jpg/268x0w.jpg"
  },
  {
    "id": "2",
    "titre": "The Slim Shady LP",
    "artiste": "Eminem",
    "annee": "1999",
    "genre": "Hip-Hop/Rap",
    "piste": "20",
    "image": "https://is1-ssl.mzstatic.com/image/thumb/Music128/v4/03/92/07/039207c4-aff7-c64b-31da-9a696172fe2f/00602537439386.rgb.jpg/268x0w.jpg"
  },
  {
    "id": "3",
    "titre": "Kamikaze",
    "artiste": "Eminem",
    "annee": "2018",
    "genre": "Hip-Hop/Rap",
    "piste": "13",
    "image": "https://is3-ssl.mzstatic.com/image/thumb/Music128/v4/53/0b/17/530b177a-4c02-4d6e-23d8-3b044cfeb52a/00602577046223.rgb.jpg/268x0w.jpg"
  },
  {
    "id": "4",
    "titre": "All Eyez On Me",
    "artiste": "2Pac",
    "annee": "1996",
    "genre": "Hip-Hop/Rap",
    "piste": "27",
    "image": "https://is4-ssl.mzstatic.com/image/thumb/Music/41/5c/ac/dj.jiruxewe.jpg/268x0w.jpg"
  },
  {
    "id": "5",
    "titre": "2001",
    "artiste": "Dr Dre",
    "annee": "1999",
    "genre": "Hip-Hop/Rap",
    "piste": "22",
    "image": "https://is3-ssl.mzstatic.com/image/thumb/Music118/v4/12/38/06/12380635-3396-924d-d769-1417e7eb6f71/00602517641266.rgb.jpg/268x0w.jpg"
  },
  {
    "id": "6",
    "titre": "Grand Champ",
    "artiste": "DMX",
    "annee": "2003",
    "genre": "Hip-Hop/Rap",
    "piste": "24",
    "image": "https://is4-ssl.mzstatic.com/image/thumb/Music118/v4/1a/56/e3/1a56e36e-5093-2c22-43c6-e6644d37a5c7/00602498608968.rgb.jpg/268x0w.jpg"
  },
  {
    "id": "7",
    "titre": "Suprême NTM",
    "artiste": "Suprême NTM",
    "annee": "1998",
    "genre": "Hip-Hop/Rap",
    "piste": "16",
    "image": "https://is2-ssl.mzstatic.com/image/thumb/Music118/v4/97/9e/9d/979e9dd6-4b66-9dc6-d04b-d548cfcff832/5099748976628.jpg/268x0w.jpg"
  },
  {
    "id": "8",
    "titre": "It Was Written",
    "artiste": "Nas",
    "annee": "1996",
    "genre": "Hip-Hop/Rap",
    "piste": "16",
    "image": "https://is4-ssl.mzstatic.com/image/thumb/Music/de/d7/c1/mzi.hfnmzkmx.jpg/268x0w.jpg"
  },
  {
    "id": "9",
    "titre": "L'École du micro d'argent",
    "artiste": "IAM",
    "annee": "1997",
    "genre": "Hip-Hop/Rap",
    "piste": "16",
    "image": "https://is3-ssl.mzstatic.com/image/thumb/Music/v4/9b/6a/85/9b6a85da-356b-4594-8c24-19cb3b885458/0724384699154_1401x1401_300dpi.jpg/268x0w.jpg"
  },
  {
    "id": "10",
    "titre": "Ready to Die",
    "artiste": "The Notorious B.I.G.",
    "annee": "1994",
    "genre": "Hip-Hop/Rap",
    "piste": "19",
    "image": "https://is2-ssl.mzstatic.com/image/thumb/Features2/v4/c6/11/d3/c611d3fc-c1cb-69d5-a83e-064594b79fb6/dj.hjzzaivb.jpg/268x0w.jpg"
  }
]